<?xml version="1.0" encoding="UTF-8"?>
<session version="1.0">
<refactoring accessors="true" comment="Delete element from project &apos;os project&apos;&#x0A;- Original project: &apos;os project&apos;&#x0A;- Original element: &apos;os project/src/(default package)&apos;" description="Delete element" element1="/src&lt;" elements="1" flags="589830" id="org.eclipse.jdt.ui.delete" resources="0" stamp="1383264026644" subPackages="false" version="1.0"/>
</session>